Django==2.0
djangorestframework==3.8.0
coreapi==2.3.3
certifi==2018.11.29
chardet==3.0.4
click==6.7
coreschema==0.0.4
idna==2.7
itypes==1.1.0
Jinja2==2.10
MarkupSafe==1.1.0
Pillow==5.1.0
psycopg2==2.7.6.1
pytz==2018.7
requests==2.20.1
uritemplate==3.0.0
urllib3==1.24.1
django-cors-headers==2.4.0
django-filter==2.0.0
model_mommy==1.6.0
django-extensions==2.1.4
drfdocs==0.0.11
gunicorn==19.9.0